<?xml version="1.0" encoding="UTF-8"?>
<session version="1.0">
<refactoring comment="Rename type &apos;com.model.Food&apos; to &apos;login&apos;&#x0D;&#x0A;- Original project: &apos;Bitemenow&apos;&#x0D;&#x0A;- Original element: &apos;com.model.Food&apos;&#x0D;&#x0A;- Renamed element: &apos;com.model.login&apos;&#x0D;&#x0A;- Update references to refactored element&#x0D;&#x0A;- Update textual occurrences in comments and strings" description="Rename type &apos;Food&apos;" flags="589830" id="org.eclipse.jdt.ui.rename.type" input="/src\/main\/java&lt;com.model{Food.java[Food" matchStrategy="1" name="login" qualified="false" references="true" similarDeclarations="false" stamp="1707737424106" textual="false" version="1.0"/>
</session>